info face="LCD Solid" size=-32 bold=0 italic=0 charset="" unicode=1 stretchH=100 smooth=0 aa=1 padding=0,0,0,0 spacing=1,1 outline=0
common lineHeight=26 base=26 scaleW=256 scaleH=512 pages=1 packed=0 alphaChnl=0 redChnl=4 greenChnl=4 blueChnl=4
page id=0 file="lcd solid_0.png"
chars count=189
char id=32   x=252   y=71    width=3     height=1     xoffset=-1    yoffset=25    xadvance=20    page=0  chnl=15
char id=33   x=246   y=200   width=4     height=24    xoffset=8     yoffset=0     xadvance=20    page=0  chnl=15
char id=34   x=227   y=261   width=10    height=10    xoffset=5     yoffset=0     xadvance=20    page=0  chnl=15
char id=35   x=111   y=0     width=17    height=24    xoffset=2     yoffset=0     xadvance=20    page=0  chnl=15
char id=36   x=129   y=0     width=17    height=24    xoffset=2     yoffset=0     xadvance=20    page=0  chnl=15
char id=37   x=147   y=0     width=17    height=24    xoffset=2     yoffset=0     xadvance=20    page=0  chnl=15
char id=38   x=165   y=0     width=17    height=24    xoffset=2     yoffset=0     xadvance=20    page=0  chnl=15
char id=39   x=248   y=225   width=7     height=11    xoffset=5     yoffset=0     xadvance=20    page=0  chnl=15
char id=40   x=158   y=200   width=10    height=24    xoffset=5     yoffset=0     xadvance=20    page=0  chnl=15
char id=41   x=169   y=200   width=10    height=24    xoffset=5     yoffset=0     xadvance=20    page=0  chnl=15
char id=42   x=0     y=250   width=17    height=17    xoffset=2     yoffset=4     xadvance=20    page=0  chnl=15
char id=43   x=18    y=250   width=17    height=17    xoffset=2     yoffset=4     xadvance=20    page=0  chnl=15
char id=44   x=238   y=261   width=7     height=10    xoffset=5     yoffset=14    xadvance=20    page=0  chnl=15
char id=45   x=47    y=286   width=17    height=4     xoffset=2     yoffset=10    xadvance=20    page=0  chnl=15
char id=46   x=21    y=286   width=7     height=6     xoffset=5     yoffset=18    xadvance=20    page=0  chnl=15
char id=47   x=36    y=250   width=17    height=17    xoffset=2     yoffset=4     xadvance=20    page=0  chnl=15
char id=48   x=90    y=25    width=17    height=24    xoffset=2     yoffset=0     xadvance=20    page=0  chnl=15
char id=49   x=202   y=200   width=10    height=24    xoffset=5     yoffset=0     xadvance=20    page=0  chnl=15
char id=50   x=88    y=225   width=17    height=23    xoffset=2     yoffset=1     xadvance=20    page=0  chnl=15
char id=51   x=144   y=25    width=17    height=24    xoffset=2     yoffset=0     xadvance=20    page=0  chnl=15
char id=52   x=162   y=25    width=17    height=24    xoffset=2     yoffset=0     xadvance=20    page=0  chnl=15
char id=53   x=180   y=25    width=17    height=24    xoffset=2     yoffset=0     xadvance=20    page=0  chnl=15
char id=54   x=198   y=25    width=17    height=24    xoffset=2     yoffset=0     xadvance=20    page=0  chnl=15
char id=55   x=57    y=0     width=17    height=24    xoffset=2     yoffset=0     xadvance=20    page=0  chnl=15
char id=56   x=234   y=25    width=17    height=24    xoffset=2     yoffset=0     xadvance=20    page=0  chnl=15
char id=57   x=0     y=50    width=17    height=24    xoffset=2     yoffset=0     xadvance=20    page=0  chnl=15
char id=58   x=240   y=225   width=7     height=17    xoffset=5     yoffset=4     xadvance=20    page=0  chnl=15
char id=59   x=196   y=225   width=7     height=20    xoffset=5     yoffset=4     xadvance=20    page=0  chnl=15
char id=60   x=36    y=200   width=14    height=24    xoffset=1     yoffset=0     xadvance=20    page=0  chnl=15
char id=61   x=198   y=264   width=17    height=10    xoffset=2     yoffset=7     xadvance=20    page=0  chnl=15
char id=62   x=107   y=200   width=13    height=24    xoffset=2     yoffset=0     xadvance=20    page=0  chnl=15
char id=63   x=108   y=50    width=17    height=24    xoffset=2     yoffset=0     xadvance=20    page=0  chnl=15
char id=64   x=126   y=50    width=17    height=24    xoffset=2     yoffset=0     xadvance=20    page=0  chnl=15
char id=65   x=144   y=50    width=17    height=24    xoffset=2     yoffset=0     xadvance=20    page=0  chnl=15
char id=66   x=162   y=50    width=17    height=24    xoffset=2     yoffset=0     xadvance=20    page=0  chnl=15
char id=67   x=180   y=50    width=17    height=24    xoffset=2     yoffset=0     xadvance=20    page=0  chnl=15
char id=68   x=198   y=50    width=17    height=24    xoffset=2     yoffset=0     xadvance=20    page=0  chnl=15
char id=69   x=216   y=50    width=17    height=24    xoffset=2     yoffset=0     xadvance=20    page=0  chnl=15
char id=70   x=38    y=0     width=18    height=24    xoffset=1     yoffset=0     xadvance=20    page=0  chnl=15
char id=71   x=0     y=0     width=18    height=24    xoffset=1     yoffset=0     xadvance=20    page=0  chnl=15
char id=72   x=234   y=50    width=17    height=24    xoffset=2     yoffset=0     xadvance=20    page=0  chnl=15
char id=73   x=147   y=200   width=10    height=24    xoffset=5     yoffset=0     xadvance=20    page=0  chnl=15
char id=74   x=18    y=75    width=17    height=24    xoffset=2     yoffset=0     xadvance=20    page=0  chnl=15
char id=75   x=36    y=75    width=17    height=24    xoffset=2     yoffset=0     xadvance=20    page=0  chnl=15
char id=76   x=19    y=0     width=18    height=24    xoffset=1     yoffset=0     xadvance=20    page=0  chnl=15
char id=77   x=54    y=75    width=17    height=24    xoffset=2     yoffset=0     xadvance=20    page=0  chnl=15
char id=78   x=216   y=25    width=17    height=24    xoffset=2     yoffset=0     xadvance=20    page=0  chnl=15
char id=79   x=90    y=75    width=17    height=24    xoffset=2     yoffset=0     xadvance=20    page=0  chnl=15
char id=80   x=108   y=75    width=17    height=24    xoffset=2     yoffset=0     xadvance=20    page=0  chnl=15
char id=81   x=126   y=75    width=17    height=24    xoffset=2     yoffset=0     xadvance=20    page=0  chnl=15
char id=82   x=144   y=75    width=17    height=24    xoffset=2     yoffset=0     xadvance=20    page=0  chnl=15
char id=83   x=162   y=75    width=17    height=24    xoffset=2     yoffset=0     xadvance=20    page=0  chnl=15
char id=84   x=180   y=75    width=17    height=24    xoffset=2     yoffset=0     xadvance=20    page=0  chnl=15
char id=85   x=198   y=75    width=17    height=24    xoffset=2     yoffset=0     xadvance=20    page=0  chnl=15
char id=86   x=216   y=75    width=17    height=24    xoffset=2     yoffset=0     xadvance=20    page=0  chnl=15
char id=87   x=234   y=75    width=17    height=24    xoffset=2     yoffset=0     xadvance=20    page=0  chnl=15
char id=88   x=0     y=100   width=17    height=24    xoffset=2     yoffset=0     xadvance=20    page=0  chnl=15
char id=89   x=18    y=100   width=17    height=24    xoffset=2     yoffset=0     xadvance=20    page=0  chnl=15
char id=90   x=36    y=100   width=17    height=24    xoffset=2     yoffset=0     xadvance=20    page=0  chnl=15
char id=91   x=235   y=200   width=10    height=24    xoffset=5     yoffset=0     xadvance=20    page=0  chnl=15
char id=92   x=126   y=264   width=17    height=17    xoffset=2     yoffset=4     xadvance=20    page=0  chnl=15
char id=93   x=11    y=225   width=10    height=24    xoffset=5     yoffset=0     xadvance=20    page=0  chnl=15
char id=94   x=180   y=264   width=17    height=11    xoffset=2     yoffset=0     xadvance=20    page=0  chnl=15
char id=95   x=29    y=286   width=17    height=4     xoffset=2     yoffset=21    xadvance=20    page=0  chnl=15
char id=96   x=246   y=261   width=7     height=7     xoffset=8     yoffset=0     xadvance=20    page=0  chnl=15
char id=97   x=90    y=267   width=17    height=17    xoffset=2     yoffset=7     xadvance=20    page=0  chnl=15
char id=98   x=180   y=100   width=17    height=24    xoffset=2     yoffset=0     xadvance=20    page=0  chnl=15
char id=99   x=72    y=268   width=17    height=17    xoffset=2     yoffset=7     xadvance=20    page=0  chnl=15
char id=100  x=216   y=100   width=17    height=24    xoffset=2     yoffset=0     xadvance=20    page=0  chnl=15
char id=101  x=144   y=264   width=17    height=17    xoffset=2     yoffset=7     xadvance=20    page=0  chnl=15
char id=102  x=0     y=125   width=17    height=24    xoffset=2     yoffset=0     xadvance=20    page=0  chnl=15
char id=103  x=124   y=225   width=17    height=20    xoffset=2     yoffset=4     xadvance=20    page=0  chnl=15
char id=104  x=36    y=125   width=17    height=24    xoffset=2     yoffset=0     xadvance=20    page=0  chnl=15
char id=105  x=77    y=225   width=10    height=24    xoffset=5     yoffset=0     xadvance=20    page=0  chnl=15
char id=106  x=51    y=200   width=13    height=24    xoffset=2     yoffset=0     xadvance=20    page=0  chnl=15
char id=107  x=65    y=200   width=13    height=24    xoffset=2     yoffset=0     xadvance=20    page=0  chnl=15
char id=108  x=180   y=200   width=10    height=24    xoffset=5     yoffset=0     xadvance=20    page=0  chnl=15
char id=109  x=54    y=268   width=17    height=17    xoffset=2     yoffset=7     xadvance=20    page=0  chnl=15
char id=110  x=216   y=243   width=17    height=17    xoffset=2     yoffset=7     xadvance=20    page=0  chnl=15
char id=111  x=180   y=246   width=17    height=17    xoffset=2     yoffset=7     xadvance=20    page=0  chnl=15
char id=112  x=162   y=246   width=17    height=17    xoffset=2     yoffset=7     xadvance=20    page=0  chnl=15
char id=113  x=144   y=246   width=17    height=17    xoffset=2     yoffset=7     xadvance=20    page=0  chnl=15
char id=114  x=234   y=243   width=17    height=17    xoffset=2     yoffset=7     xadvance=20    page=0  chnl=15
char id=115  x=0     y=268   width=17    height=17    xoffset=2     yoffset=7     xadvance=20    page=0  chnl=15
char id=116  x=0     y=150   width=17    height=24    xoffset=2     yoffset=0     xadvance=20    page=0  chnl=15
char id=117  x=108   y=265   width=17    height=17    xoffset=2     yoffset=7     xadvance=20    page=0  chnl=15
char id=118  x=54    y=250   width=17    height=17    xoffset=2     yoffset=7     xadvance=20    page=0  chnl=15
char id=119  x=72    y=250   width=17    height=17    xoffset=2     yoffset=7     xadvance=20    page=0  chnl=15
char id=120  x=90    y=249   width=17    height=17    xoffset=2     yoffset=7     xadvance=20    page=0  chnl=15
char id=121  x=108   y=247   width=17    height=17    xoffset=2     yoffset=7     xadvance=20    page=0  chnl=15
char id=122  x=126   y=246   width=17    height=17    xoffset=2     yoffset=7     xadvance=20    page=0  chnl=15
char id=123  x=66    y=225   width=10    height=24    xoffset=3     yoffset=0     xadvance=20    page=0  chnl=15
char id=124  x=251   y=200   width=4     height=24    xoffset=8     yoffset=0     xadvance=20    page=0  chnl=15
char id=125  x=135   y=200   width=11    height=24    xoffset=7     yoffset=0     xadvance=20    page=0  chnl=15
char id=126  x=0     y=286   width=20    height=7     xoffset=0     yoffset=11    xadvance=20    page=0  chnl=15
char id=161  x=252   y=50    width=3     height=20    xoffset=9     yoffset=4     xadvance=20    page=0  chnl=15
char id=162  x=198   y=150   width=17    height=24    xoffset=2     yoffset=0     xadvance=20    page=0  chnl=15
char id=163  x=216   y=150   width=17    height=24    xoffset=2     yoffset=0     xadvance=20    page=0  chnl=15
char id=164  x=234   y=150   width=17    height=24    xoffset=2     yoffset=0     xadvance=20    page=0  chnl=15
char id=165  x=0     y=175   width=17    height=24    xoffset=2     yoffset=0     xadvance=20    page=0  chnl=15
char id=166  x=252   y=25    width=3     height=24    xoffset=9     yoffset=0     xadvance=20    page=0  chnl=15
char id=167  x=18    y=175   width=17    height=24    xoffset=2     yoffset=0     xadvance=20    page=0  chnl=15
char id=168  x=36    y=268   width=17    height=17    xoffset=2     yoffset=4     xadvance=20    page=0  chnl=15
char id=169  x=36    y=175   width=17    height=24    xoffset=2     yoffset=0     xadvance=20    page=0  chnl=15
char id=170  x=93    y=200   width=13    height=24    xoffset=2     yoffset=0     xadvance=20    page=0  chnl=15
char id=171  x=54    y=175   width=17    height=24    xoffset=2     yoffset=0     xadvance=20    page=0  chnl=15
char id=172  x=72    y=175   width=17    height=24    xoffset=2     yoffset=0     xadvance=20    page=0  chnl=15
char id=174  x=106   y=225   width=17    height=21    xoffset=2     yoffset=0     xadvance=20    page=0  chnl=15
char id=175  x=90    y=175   width=17    height=24    xoffset=2     yoffset=0     xadvance=20    page=0  chnl=15
char id=176  x=108   y=175   width=17    height=24    xoffset=2     yoffset=0     xadvance=20    page=0  chnl=15
char id=177  x=126   y=175   width=17    height=24    xoffset=2     yoffset=0     xadvance=20    page=0  chnl=15
char id=178  x=144   y=175   width=17    height=24    xoffset=2     yoffset=0     xadvance=20    page=0  chnl=15
char id=179  x=162   y=175   width=17    height=24    xoffset=2     yoffset=0     xadvance=20    page=0  chnl=15
char id=180  x=142   y=225   width=17    height=20    xoffset=2     yoffset=4     xadvance=20    page=0  chnl=15
char id=181  x=204   y=225   width=17    height=17    xoffset=2     yoffset=7     xadvance=20    page=0  chnl=15
char id=182  x=180   y=175   width=17    height=24    xoffset=2     yoffset=0     xadvance=20    page=0  chnl=15
char id=183  x=160   y=225   width=17    height=20    xoffset=2     yoffset=4     xadvance=20    page=0  chnl=15
char id=184  x=18    y=125   width=17    height=24    xoffset=2     yoffset=0     xadvance=20    page=0  chnl=15
char id=185  x=198   y=175   width=17    height=24    xoffset=2     yoffset=0     xadvance=20    page=0  chnl=15
char id=186  x=216   y=261   width=10    height=10    xoffset=5     yoffset=0     xadvance=20    page=0  chnl=15
char id=187  x=216   y=175   width=17    height=24    xoffset=2     yoffset=0     xadvance=20    page=0  chnl=15
char id=188  x=234   y=175   width=17    height=24    xoffset=2     yoffset=0     xadvance=20    page=0  chnl=15
char id=189  x=0     y=200   width=17    height=24    xoffset=2     yoffset=0     xadvance=20    page=0  chnl=15
char id=190  x=18    y=200   width=17    height=24    xoffset=2     yoffset=0     xadvance=20    page=0  chnl=15
char id=191  x=75    y=0     width=17    height=24    xoffset=2     yoffset=0     xadvance=20    page=0  chnl=15
char id=192  x=93    y=0     width=17    height=24    xoffset=2     yoffset=0     xadvance=20    page=0  chnl=15
char id=193  x=183   y=0     width=17    height=24    xoffset=2     yoffset=0     xadvance=20    page=0  chnl=15
char id=194  x=201   y=0     width=17    height=24    xoffset=2     yoffset=0     xadvance=20    page=0  chnl=15
char id=195  x=219   y=0     width=17    height=24    xoffset=2     yoffset=0     xadvance=20    page=0  chnl=15
char id=196  x=237   y=0     width=17    height=24    xoffset=2     yoffset=0     xadvance=20    page=0  chnl=15
char id=197  x=0     y=25    width=17    height=24    xoffset=2     yoffset=0     xadvance=20    page=0  chnl=15
char id=198  x=18    y=25    width=17    height=24    xoffset=2     yoffset=0     xadvance=20    page=0  chnl=15
char id=199  x=36    y=25    width=17    height=24    xoffset=2     yoffset=0     xadvance=20    page=0  chnl=15
char id=200  x=54    y=25    width=17    height=24    xoffset=2     yoffset=0     xadvance=20    page=0  chnl=15
char id=201  x=72    y=25    width=17    height=24    xoffset=2     yoffset=0     xadvance=20    page=0  chnl=15
char id=202  x=108   y=25    width=17    height=24    xoffset=2     yoffset=0     xadvance=20    page=0  chnl=15
char id=203  x=126   y=25    width=17    height=24    xoffset=2     yoffset=0     xadvance=20    page=0  chnl=15
char id=204  x=22    y=225   width=10    height=24    xoffset=5     yoffset=0     xadvance=20    page=0  chnl=15
char id=205  x=0     y=225   width=10    height=24    xoffset=5     yoffset=0     xadvance=20    page=0  chnl=15
char id=206  x=224   y=200   width=10    height=24    xoffset=5     yoffset=0     xadvance=20    page=0  chnl=15
char id=207  x=213   y=200   width=10    height=24    xoffset=5     yoffset=0     xadvance=20    page=0  chnl=15
char id=208  x=18    y=50    width=17    height=24    xoffset=2     yoffset=0     xadvance=20    page=0  chnl=15
char id=209  x=36    y=50    width=17    height=24    xoffset=2     yoffset=0     xadvance=20    page=0  chnl=15
char id=210  x=54    y=50    width=17    height=24    xoffset=2     yoffset=0     xadvance=20    page=0  chnl=15
char id=211  x=72    y=50    width=17    height=24    xoffset=2     yoffset=0     xadvance=20    page=0  chnl=15
char id=212  x=90    y=50    width=17    height=24    xoffset=2     yoffset=0     xadvance=20    page=0  chnl=15
char id=213  x=0     y=75    width=17    height=24    xoffset=2     yoffset=0     xadvance=20    page=0  chnl=15
char id=214  x=72    y=75    width=17    height=24    xoffset=2     yoffset=0     xadvance=20    page=0  chnl=15
char id=215  x=18    y=268   width=17    height=17    xoffset=2     yoffset=4     xadvance=20    page=0  chnl=15
char id=216  x=54    y=100   width=17    height=24    xoffset=2     yoffset=0     xadvance=20    page=0  chnl=15
char id=217  x=72    y=100   width=17    height=24    xoffset=2     yoffset=0     xadvance=20    page=0  chnl=15
char id=218  x=90    y=100   width=17    height=24    xoffset=2     yoffset=0     xadvance=20    page=0  chnl=15
char id=219  x=108   y=100   width=17    height=24    xoffset=2     yoffset=0     xadvance=20    page=0  chnl=15
char id=220  x=126   y=100   width=17    height=24    xoffset=2     yoffset=0     xadvance=20    page=0  chnl=15
char id=221  x=144   y=100   width=17    height=24    xoffset=2     yoffset=0     xadvance=20    page=0  chnl=15
char id=222  x=121   y=200   width=13    height=24    xoffset=2     yoffset=0     xadvance=20    page=0  chnl=15
char id=223  x=178   y=225   width=17    height=20    xoffset=2     yoffset=4     xadvance=20    page=0  chnl=15
char id=224  x=162   y=100   width=17    height=24    xoffset=2     yoffset=0     xadvance=20    page=0  chnl=15
char id=225  x=198   y=100   width=17    height=24    xoffset=2     yoffset=0     xadvance=20    page=0  chnl=15
char id=226  x=234   y=100   width=17    height=24    xoffset=2     yoffset=0     xadvance=20    page=0  chnl=15
char id=227  x=54    y=125   width=17    height=24    xoffset=2     yoffset=0     xadvance=20    page=0  chnl=15
char id=228  x=72    y=125   width=17    height=24    xoffset=2     yoffset=0     xadvance=20    page=0  chnl=15
char id=229  x=90    y=125   width=17    height=24    xoffset=2     yoffset=0     xadvance=20    page=0  chnl=15
char id=230  x=198   y=246   width=17    height=17    xoffset=2     yoffset=7     xadvance=20    page=0  chnl=15
char id=231  x=108   y=125   width=17    height=24    xoffset=2     yoffset=0     xadvance=20    page=0  chnl=15
char id=232  x=180   y=150   width=17    height=24    xoffset=2     yoffset=0     xadvance=20    page=0  chnl=15
char id=233  x=126   y=125   width=17    height=24    xoffset=2     yoffset=0     xadvance=20    page=0  chnl=15
char id=234  x=144   y=125   width=17    height=24    xoffset=2     yoffset=0     xadvance=20    page=0  chnl=15
char id=235  x=162   y=125   width=17    height=24    xoffset=2     yoffset=0     xadvance=20    page=0  chnl=15
char id=236  x=191   y=200   width=10    height=24    xoffset=5     yoffset=0     xadvance=20    page=0  chnl=15
char id=237  x=55    y=225   width=10    height=24    xoffset=5     yoffset=0     xadvance=20    page=0  chnl=15
char id=238  x=44    y=225   width=10    height=24    xoffset=5     yoffset=0     xadvance=20    page=0  chnl=15
char id=239  x=33    y=225   width=10    height=24    xoffset=5     yoffset=0     xadvance=20    page=0  chnl=15
char id=240  x=180   y=125   width=17    height=24    xoffset=2     yoffset=0     xadvance=20    page=0  chnl=15
char id=241  x=198   y=125   width=17    height=24    xoffset=2     yoffset=0     xadvance=20    page=0  chnl=15
char id=242  x=216   y=125   width=17    height=24    xoffset=2     yoffset=0     xadvance=20    page=0  chnl=15
char id=243  x=234   y=125   width=17    height=24    xoffset=2     yoffset=0     xadvance=20    page=0  chnl=15
char id=244  x=18    y=150   width=17    height=24    xoffset=2     yoffset=0     xadvance=20    page=0  chnl=15
char id=245  x=36    y=150   width=17    height=24    xoffset=2     yoffset=0     xadvance=20    page=0  chnl=15
char id=246  x=54    y=150   width=17    height=24    xoffset=2     yoffset=0     xadvance=20    page=0  chnl=15
char id=247  x=162   y=264   width=17    height=17    xoffset=2     yoffset=4     xadvance=20    page=0  chnl=15
char id=248  x=222   y=225   width=17    height=17    xoffset=2     yoffset=7     xadvance=20    page=0  chnl=15
char id=249  x=72    y=150   width=17    height=24    xoffset=2     yoffset=0     xadvance=20    page=0  chnl=15
char id=250  x=90    y=150   width=17    height=24    xoffset=2     yoffset=0     xadvance=20    page=0  chnl=15
char id=251  x=108   y=150   width=17    height=24    xoffset=2     yoffset=0     xadvance=20    page=0  chnl=15
char id=252  x=126   y=150   width=17    height=24    xoffset=2     yoffset=0     xadvance=20    page=0  chnl=15
char id=253  x=144   y=150   width=17    height=24    xoffset=2     yoffset=0     xadvance=20    page=0  chnl=15
char id=254  x=79    y=200   width=13    height=24    xoffset=2     yoffset=0     xadvance=20    page=0  chnl=15
char id=255  x=162   y=150   width=17    height=24    xoffset=2     yoffset=0     xadvance=20    page=0  chnl=15
