info face="lcd phone" size=48 bold=0 italic=0 charset="" unicode=1 stretchH=100 smooth=0 aa=1 padding=0,0,0,0 spacing=1,1 outline=0
common lineHeight=48 base=38 scaleW=256 scaleH=512 pages=1 packed=0 alphaChnl=0 redChnl=4 greenChnl=4 blueChnl=4
page id=0 file="lcdphone_0.png"
chars count=112
char id=0    x=253   y=0     width=0     height=1     xoffset=0     yoffset=47    xadvance=0     page=0  chnl=15
char id=32   x=249   y=0     width=3     height=1     xoffset=-1    yoffset=47    xadvance=24    page=0  chnl=15
char id=48   x=58    y=0     width=28    height=38    xoffset=2     yoffset=0     xadvance=32    page=0  chnl=15
char id=49   x=232   y=0     width=16    height=38    xoffset=2     yoffset=0     xadvance=21    page=0  chnl=15
char id=50   x=116   y=0     width=28    height=38    xoffset=2     yoffset=0     xadvance=32    page=0  chnl=15
char id=51   x=145   y=0     width=28    height=38    xoffset=2     yoffset=0     xadvance=32    page=0  chnl=15
char id=52   x=174   y=0     width=28    height=38    xoffset=2     yoffset=0     xadvance=32    page=0  chnl=15
char id=53   x=203   y=0     width=28    height=38    xoffset=2     yoffset=0     xadvance=32    page=0  chnl=15
char id=54   x=0     y=39    width=28    height=38    xoffset=2     yoffset=0     xadvance=32    page=0  chnl=15
char id=55   x=29    y=39    width=28    height=38    xoffset=2     yoffset=0     xadvance=32    page=0  chnl=15
char id=56   x=58    y=39    width=28    height=38    xoffset=2     yoffset=0     xadvance=32    page=0  chnl=15
char id=57   x=87    y=39    width=28    height=38    xoffset=2     yoffset=0     xadvance=32    page=0  chnl=15
char id=65   x=116   y=39    width=28    height=38    xoffset=2     yoffset=0     xadvance=32    page=0  chnl=15
char id=66   x=145   y=39    width=28    height=38    xoffset=2     yoffset=0     xadvance=32    page=0  chnl=15
char id=67   x=0     y=0     width=28    height=38    xoffset=2     yoffset=0     xadvance=32    page=0  chnl=15
char id=68   x=203   y=39    width=28    height=38    xoffset=2     yoffset=0     xadvance=32    page=0  chnl=15
char id=69   x=0     y=78    width=28    height=38    xoffset=2     yoffset=0     xadvance=32    page=0  chnl=15
char id=70   x=29    y=78    width=28    height=38    xoffset=2     yoffset=0     xadvance=32    page=0  chnl=15
char id=71   x=58    y=78    width=28    height=38    xoffset=2     yoffset=0     xadvance=32    page=0  chnl=15
char id=72   x=87    y=78    width=28    height=38    xoffset=2     yoffset=0     xadvance=32    page=0  chnl=15
char id=73   x=232   y=39    width=16    height=38    xoffset=2     yoffset=0     xadvance=21    page=0  chnl=15
char id=74   x=145   y=78    width=28    height=38    xoffset=2     yoffset=0     xadvance=32    page=0  chnl=15
char id=75   x=0     y=468   width=27    height=38    xoffset=1     yoffset=0     xadvance=30    page=0  chnl=15
char id=76   x=203   y=78    width=28    height=38    xoffset=2     yoffset=0     xadvance=32    page=0  chnl=15
char id=77   x=0     y=117   width=28    height=38    xoffset=2     yoffset=0     xadvance=32    page=0  chnl=15
char id=78   x=29    y=117   width=28    height=38    xoffset=2     yoffset=0     xadvance=32    page=0  chnl=15
char id=79   x=58    y=117   width=28    height=38    xoffset=2     yoffset=0     xadvance=32    page=0  chnl=15
char id=80   x=87    y=117   width=28    height=38    xoffset=2     yoffset=0     xadvance=32    page=0  chnl=15
char id=81   x=174   y=39    width=28    height=38    xoffset=2     yoffset=0     xadvance=32    page=0  chnl=15
char id=82   x=145   y=117   width=28    height=38    xoffset=2     yoffset=0     xadvance=32    page=0  chnl=15
char id=83   x=174   y=117   width=28    height=38    xoffset=2     yoffset=0     xadvance=32    page=0  chnl=15
char id=84   x=203   y=117   width=28    height=38    xoffset=2     yoffset=0     xadvance=32    page=0  chnl=15
char id=85   x=0     y=156   width=28    height=38    xoffset=2     yoffset=0     xadvance=32    page=0  chnl=15
char id=86   x=29    y=156   width=28    height=38    xoffset=2     yoffset=0     xadvance=32    page=0  chnl=15
char id=87   x=58    y=156   width=28    height=38    xoffset=2     yoffset=0     xadvance=32    page=0  chnl=15
char id=88   x=87    y=156   width=28    height=38    xoffset=2     yoffset=0     xadvance=32    page=0  chnl=15
char id=89   x=116   y=156   width=28    height=38    xoffset=2     yoffset=0     xadvance=32    page=0  chnl=15
char id=90   x=145   y=156   width=28    height=38    xoffset=2     yoffset=0     xadvance=32    page=0  chnl=15
char id=97   x=174   y=156   width=28    height=38    xoffset=2     yoffset=0     xadvance=32    page=0  chnl=15
char id=98   x=203   y=156   width=28    height=38    xoffset=2     yoffset=0     xadvance=32    page=0  chnl=15
char id=99   x=0     y=195   width=28    height=38    xoffset=2     yoffset=0     xadvance=32    page=0  chnl=15
char id=100  x=29    y=195   width=28    height=38    xoffset=2     yoffset=0     xadvance=32    page=0  chnl=15
char id=101  x=58    y=195   width=28    height=38    xoffset=2     yoffset=0     xadvance=32    page=0  chnl=15
char id=102  x=87    y=195   width=28    height=38    xoffset=2     yoffset=0     xadvance=32    page=0  chnl=15
char id=103  x=116   y=195   width=28    height=38    xoffset=2     yoffset=0     xadvance=32    page=0  chnl=15
char id=104  x=145   y=195   width=28    height=38    xoffset=2     yoffset=0     xadvance=32    page=0  chnl=15
char id=105  x=232   y=78    width=16    height=38    xoffset=2     yoffset=0     xadvance=21    page=0  chnl=15
char id=106  x=203   y=195   width=28    height=38    xoffset=2     yoffset=0     xadvance=32    page=0  chnl=15
char id=107  x=0     y=234   width=28    height=38    xoffset=2     yoffset=0     xadvance=32    page=0  chnl=15
char id=108  x=29    y=234   width=28    height=38    xoffset=2     yoffset=0     xadvance=32    page=0  chnl=15
char id=109  x=58    y=234   width=28    height=38    xoffset=2     yoffset=0     xadvance=32    page=0  chnl=15
char id=110  x=87    y=234   width=28    height=38    xoffset=2     yoffset=0     xadvance=32    page=0  chnl=15
char id=111  x=116   y=234   width=28    height=38    xoffset=2     yoffset=0     xadvance=32    page=0  chnl=15
char id=112  x=145   y=234   width=28    height=38    xoffset=2     yoffset=0     xadvance=32    page=0  chnl=15
char id=113  x=174   y=234   width=28    height=38    xoffset=2     yoffset=0     xadvance=32    page=0  chnl=15
char id=114  x=203   y=234   width=28    height=38    xoffset=2     yoffset=0     xadvance=32    page=0  chnl=15
char id=115  x=0     y=273   width=28    height=38    xoffset=2     yoffset=0     xadvance=32    page=0  chnl=15
char id=116  x=29    y=273   width=28    height=38    xoffset=2     yoffset=0     xadvance=32    page=0  chnl=15
char id=117  x=58    y=273   width=28    height=38    xoffset=2     yoffset=0     xadvance=32    page=0  chnl=15
char id=118  x=87    y=273   width=28    height=38    xoffset=2     yoffset=0     xadvance=32    page=0  chnl=15
char id=119  x=116   y=273   width=28    height=38    xoffset=2     yoffset=0     xadvance=32    page=0  chnl=15
char id=120  x=145   y=273   width=28    height=38    xoffset=2     yoffset=0     xadvance=32    page=0  chnl=15
char id=121  x=174   y=273   width=28    height=38    xoffset=2     yoffset=0     xadvance=32    page=0  chnl=15
char id=122  x=203   y=273   width=28    height=38    xoffset=2     yoffset=0     xadvance=32    page=0  chnl=15
char id=192  x=0     y=312   width=28    height=38    xoffset=2     yoffset=0     xadvance=32    page=0  chnl=15
char id=193  x=29    y=312   width=28    height=38    xoffset=2     yoffset=0     xadvance=32    page=0  chnl=15
char id=194  x=58    y=312   width=28    height=38    xoffset=2     yoffset=0     xadvance=32    page=0  chnl=15
char id=195  x=87    y=312   width=28    height=38    xoffset=2     yoffset=0     xadvance=32    page=0  chnl=15
char id=196  x=116   y=312   width=28    height=38    xoffset=2     yoffset=0     xadvance=32    page=0  chnl=15
char id=197  x=145   y=312   width=28    height=38    xoffset=2     yoffset=0     xadvance=32    page=0  chnl=15
char id=200  x=174   y=312   width=28    height=38    xoffset=2     yoffset=0     xadvance=32    page=0  chnl=15
char id=201  x=203   y=312   width=28    height=38    xoffset=2     yoffset=0     xadvance=32    page=0  chnl=15
char id=202  x=0     y=351   width=28    height=38    xoffset=2     yoffset=0     xadvance=32    page=0  chnl=15
char id=203  x=29    y=351   width=28    height=38    xoffset=2     yoffset=0     xadvance=32    page=0  chnl=15
char id=204  x=232   y=117   width=16    height=38    xoffset=2     yoffset=0     xadvance=21    page=0  chnl=15
char id=205  x=232   y=156   width=16    height=38    xoffset=2     yoffset=0     xadvance=21    page=0  chnl=15
char id=206  x=232   y=195   width=16    height=38    xoffset=2     yoffset=0     xadvance=21    page=0  chnl=15
char id=207  x=232   y=390   width=16    height=38    xoffset=2     yoffset=0     xadvance=21    page=0  chnl=15
char id=210  x=58    y=351   width=28    height=38    xoffset=2     yoffset=0     xadvance=32    page=0  chnl=15
char id=211  x=87    y=351   width=28    height=38    xoffset=2     yoffset=0     xadvance=32    page=0  chnl=15
char id=212  x=116   y=351   width=28    height=38    xoffset=2     yoffset=0     xadvance=32    page=0  chnl=15
char id=213  x=145   y=351   width=28    height=38    xoffset=2     yoffset=0     xadvance=32    page=0  chnl=15
char id=214  x=174   y=351   width=28    height=38    xoffset=2     yoffset=0     xadvance=32    page=0  chnl=15
char id=217  x=203   y=351   width=28    height=38    xoffset=2     yoffset=0     xadvance=32    page=0  chnl=15
char id=218  x=0     y=390   width=28    height=38    xoffset=2     yoffset=0     xadvance=32    page=0  chnl=15
char id=219  x=29    y=390   width=28    height=38    xoffset=2     yoffset=0     xadvance=32    page=0  chnl=15
char id=220  x=58    y=390   width=28    height=38    xoffset=2     yoffset=0     xadvance=32    page=0  chnl=15
char id=224  x=87    y=390   width=28    height=38    xoffset=2     yoffset=0     xadvance=32    page=0  chnl=15
char id=225  x=116   y=390   width=28    height=38    xoffset=2     yoffset=0     xadvance=32    page=0  chnl=15
char id=226  x=145   y=390   width=28    height=38    xoffset=2     yoffset=0     xadvance=32    page=0  chnl=15
char id=227  x=174   y=390   width=28    height=38    xoffset=2     yoffset=0     xadvance=32    page=0  chnl=15
char id=228  x=203   y=390   width=28    height=38    xoffset=2     yoffset=0     xadvance=32    page=0  chnl=15
char id=229  x=0     y=429   width=28    height=38    xoffset=2     yoffset=0     xadvance=32    page=0  chnl=15
char id=232  x=29    y=429   width=28    height=38    xoffset=2     yoffset=0     xadvance=32    page=0  chnl=15
char id=233  x=58    y=429   width=28    height=38    xoffset=2     yoffset=0     xadvance=32    page=0  chnl=15
char id=234  x=87    y=429   width=28    height=38    xoffset=2     yoffset=0     xadvance=32    page=0  chnl=15
char id=235  x=116   y=429   width=28    height=38    xoffset=2     yoffset=0     xadvance=32    page=0  chnl=15
char id=236  x=232   y=234   width=16    height=38    xoffset=2     yoffset=0     xadvance=21    page=0  chnl=15
char id=237  x=232   y=273   width=16    height=38    xoffset=2     yoffset=0     xadvance=21    page=0  chnl=15
char id=238  x=232   y=312   width=16    height=38    xoffset=2     yoffset=0     xadvance=21    page=0  chnl=15
char id=239  x=232   y=351   width=16    height=38    xoffset=2     yoffset=0     xadvance=21    page=0  chnl=15
char id=242  x=145   y=429   width=28    height=38    xoffset=2     yoffset=0     xadvance=32    page=0  chnl=15
char id=243  x=174   y=429   width=28    height=38    xoffset=2     yoffset=0     xadvance=32    page=0  chnl=15
char id=244  x=203   y=429   width=28    height=38    xoffset=2     yoffset=0     xadvance=32    page=0  chnl=15
char id=245  x=29    y=0     width=28    height=38    xoffset=2     yoffset=0     xadvance=32    page=0  chnl=15
char id=246  x=87    y=0     width=28    height=38    xoffset=2     yoffset=0     xadvance=32    page=0  chnl=15
char id=249  x=116   y=78    width=28    height=38    xoffset=2     yoffset=0     xadvance=32    page=0  chnl=15
char id=250  x=174   y=78    width=28    height=38    xoffset=2     yoffset=0     xadvance=32    page=0  chnl=15
char id=251  x=116   y=117   width=28    height=38    xoffset=2     yoffset=0     xadvance=32    page=0  chnl=15
char id=252  x=174   y=195   width=28    height=38    xoffset=2     yoffset=0     xadvance=32    page=0  chnl=15
char id=254  x=249   y=2     width=3     height=1     xoffset=-1    yoffset=47    xadvance=48    page=0  chnl=15
char id=255  x=249   y=4     width=3     height=1     xoffset=-1    yoffset=47    xadvance=48    page=0  chnl=15
